country,avg_consumption,avg_co2
Argentina,39.03727272727273,197.49090909090907
Australia,42.2809090909091,176.24181818181816
Albania,48.43,161.62272727272727
New Zealand,32.8109090909091,159.17727272727274
Iceland,42.937272727272735,157.39636363636362
United States of America,44.650000000000006,156.26
Uruguay,39.418181818181814,148.62818181818182
Brazil,32.28727272727273,146.97545454545454
Luxembourg,45.263636363636365,145.31
Kazakhstan,42.554545454545455,143.18909090909085
Sweden,50.00000000000001,138.8209090909091
Denmark,45.37,136.1981818181818
Greece,44.875454545454545,136.1172727272727
Hong Kong SAR. China,38.72909090909091,135.8436363636364
Bermuda,27.87454545454546,134.84363636363636
Finland,58.16272727272727,133.14818181818183
Ireland,47.15,132.69727272727275
Canada,37.50454545454546,130.65090909090915
French Polynesia,31.514545454545445,129.5172727272727
France,43.560909090909085,129.09545454545454
Israel,41.61363636363637,127.7918181818182
Norway,44.31727272727273,125.62636363636362
Switzerland,46.809090909090905,123.34090909090907
Kuwait,37.307272727272725,122.31272727272726
Oman,33.06090909090909,117.88181818181816
Netherlands,48.5609090909091,117.5290909090909
United Kingdom,40.72454545454545,112.87545454545453
Austria,42.64909090909091,110.10545454545455
Italy,46.72545454545455,109.66636363636361
Bahamas,27.404545454545453,108.44545454545455
Portugal,41.76727272727273,106.75272727272728
Malta,41.594545454545454,104.35545454545455
Slovenia,39.67363636363636,101.05090909090906
Armenia,37.01,100.9027272727273
Venezuela,25.217272727272732,100.37272727272729
Belgium,42.132727272727266,100.19
Chile,30.460000000000004,99.96090909090911
Germany,41.918181818181814,96.93545454545455
Russia,37.157272727272726,91.60545454545455
Croatia,39.442727272727275,90.55909090909091
Spain,37.087272727272726,89.86090909090909
Belarus,29.230000000000004,87.29272727272728
Panama,23.684545454545454,84.40545454545453
New Caledonia,29.203636363636363,83.5109090909091
Maldives,43.30272727272727,82.13272727272728
United Arab Emirates,36.155454545454546,81.57454545454546
Turkey,39.38272727272727,81.54636363636362
South Africa,19.31,81.12818181818183
Costa Rica,31.18818181818182,81.02454545454547
Barbados,28.296363636363647,80.82818181818182
Ecuador,26.487272727272728,80.35272727272728
Paraguay,17.197272727272725,79.69727272727275
Bolivia,18.568181818181817,79.36636363636364
Lithuania,50.45545454545454,78.99090909090908
Estonia,42.26909090909092,75.52
South Korea,26.005454545454544,74.73181818181818
Mexico,22.065454545454546,72.46636363636365
Colombia,21.366363636363634,71.04818181818182
Romania,40.49909090909091,69.66363636363636
Czech Republic,34.96454545454546,69.09909090909092
Cyprus,27.60454545454546,67.39727272727272
Serbia,29.700909090909093,65.75818181818182
Fiji,22.95636363636364,65.09909090909088
Algeria,33.13727272727272,64.35272727272728
Saudi Arabia,26.529090909090908,62.98727272727273
Swaziland,13.663636363636364,61.721818181818186
Egypt,27.589090909090906,61.26545454545454
Mauritius,32.556363636363635,61.09727272727273
Pakistan,30.086363636363636,60.82454545454545
Ukraine,31.20727272727273,60.52090909090909
Japan,26.04181818181818,58.549090909090914
Vietnam,24.430909090909086,58.31909090909091
China,25.809090909090912,58.19909090909091
Latvia,31.685454545454544,57.59818181818182
Bosnia and Herzegovina,28.512727272727272,57.10727272727272
Tunisia,33.72090909090909,56.26272727272727
Trinidad and Tobago,28.638181818181817,55.491818181818196
Poland,37.40181818181818,55.218181818181826
Macedonia,29.224545454545453,54.613636363636374
Cuba,26.455454545454543,53.79000000000001
Jordan,26.49272727272727,53.45090909090909
Botswana,17.16818181818182,52.43999999999999
Hungary,32.09,52.435454545454554
Morocco,26.91,52.40181818181818
Myanmar,25.00909090909091,51.25454545454545
Slovakia,31.823636363636357,50.940000000000005
Bulgaria,31.675454545454546,50.92363636363636
Taiwan. ROC,24.863636363636363,50.86818181818182
Malaysia,25.70363636363636,50.42181818181818
Niger,9.194545454545455,49.35363636363636
Kenya,14.778181818181816,48.25818181818181
Georgia,32.92909090909091,47.91181818181818
Nepal,18.959090909090907,47.83818181818182
Senegal,15.424545454545454,42.67545454545454
Philippines,20.70818181818182,41.38909090909091
Cambodia,20.46,41.128181818181815
Jamaica,24.819999999999997,40.98454545454546
Iran,26.569090909090914,40.4790909090909
Madagascar,14.148181818181818,40.06818181818182
Grenada,23.113636363636363,39.98636363636364
Honduras,16.887272727272723,39.461818181818174
El Salvador,19.069090909090907,39.45818181818182
Belize,21.16090909090909,39.37090909090909
Guinea,14.673636363636364,39.337272727272726
Angola,10.544545454545455,37.54454545454544
Peru,19.562727272727273,36.621818181818185
Thailand,19.96181818181818,34.36363636363637
Nicaragua,17.904545454545453,34.335454545454546
Bangladesh,21.509090909090908,34.01636363636363
Indonesia,20.453636363636363,33.41
Namibia,13.740909090909092,32.91909090909091
Zimbabwe,8.77818181818182,31.84818181818183
Tanzania,8.984545454545456,31.183636363636364
Guatemala,12.118181818181817,28.63454545454546
Uganda,7.325454545454545,27.70181818181819
Sierra Leone,15.215454545454547,27.31
Sri Lanka,19.888181818181817,26.769090909090906
Gambia,16.414545454545458,26.696363636363632
Cameroon,8.826363636363636,25.782727272727275
India,20.7,25.69272727272727
Nigeria,8.566363636363636,24.344545454545457
Congo,10.666363636363636,23.86818181818182
Ethiopia,7.797272727272727,21.992727272727272
Zambia,5.191818181818181,20.481818181818188
Ghana,9.200909090909091,19.80636363636364
Malawi,4.636363636363636,18.90363636363637
Liberia,11.912727272727272,18.48909090909091
Togo,6.756363636363637,17.099090909090908
Rwanda,3.6709090909090905,16.51181818181818
Mozambique,5.764545454545455,12.854545454545455
